NNA.sim/sim_1/behav/xsim/dump.vcd
$date
   Fri Jul  5 20:11:11 2019
$end
$version
  2017.3
$end
$timescale
  1ps
$end
$scope module rdp_wrapper_fifo_buff_tb $end
$var reg 1 ! clkA $end
$var reg 1 " clkB $end
$var reg 1 # rst $end
$var reg 1 $ clr_ptrs $end
$var reg 1 % rdn $end
$var reg 1 & wrn $end
$var reg 8 ' data_in [7:0] $end
$var wire 1 ( full $end
$var wire 1 ) empty $end
$var wire 1 * almost_full $end
$var wire 1 + almost_empty $end
$var wire 8 , data_out [7:0] $end
$var integer 32 - period $end
$var integer 32 . i $end
$var parameter 32 / DATA_WIDTH [31:0] $end
$var parameter 32 0 ADDRS_WIDTH [31:0] $end
$upscope $end
$enddefinitions $end
#0
$dumpvars
0!
0"
0#
0$
0%
0&
b0 '
0(
0)
0*
0+
bx ,
b10100 -
b0 .
b1000 /
b1000 0
$end
#10000
1!
1"
#20000
0!
0"
1#
#30000
1!
1"
#40000
0!
0"
0#
1)
1+
#50000
1!
1"
#60000
0!
0"
1&
b0 '
#70000
1!
1"
0)
#80000
0!
0"
b1 '
b1 .
#90000
1!
1"
#100000
0!
0"
b10 '
b10 .
#110000
1!
1"
#120000
0!
0"
b11 '
b11 .
#130000
1!
1"
#140000
0!
0"
b100 '
b100 .
#150000
1!
1"
#160000
0!
0"
b101 '
b101 .
#170000
1!
1"
#180000
0!
0"
b110 '
b110 .
#190000
1!
1"
#200000
0!
0"
b111 '
b111 .
#210000
1!
1"
#220000
0!
0"
b1000 '
b1000 .
#230000
1!
1"
0+
#240000
0!
0"
b1001 '
b1001 .
#250000
1!
1"
#260000
0!
0"
b1010 '
b1010 .
#270000
1!
1"
#280000
0!
0"
b1011 '
b1011 .
#290000
1!
1"
#300000
0!
0"
b1100 '
b1100 .
#310000
1!
1"
#320000
0!
0"
b1101 '
b1101 .
#330000
1!
1"
#340000
0!
0"
b1110 '
b1110 .
#350000
1!
1"
#360000
0!
0"
b1111 '
b1111 .
#370000
1!
1"
#380000
0!
0"
b10000 '
b10000 .
#390000
1!
1"
#400000
0!
0"
b10001 '
b10001 .
#410000
1!
1"
#420000
0!
0"
b10010 '
b10010 .
#430000
1!
1"
#440000
0!
0"
b10011 '
b10011 .
#450000
1!
1"
#460000
0!
0"
b10100 '
b10100 .
#470000
1!
1"
#480000
0!
0"
b10101 '
b10101 .
#490000
1!
1"
#500000
0!
0"
b10110 '
b10110 .
#510000
1!
1"
#520000
0!
0"
b10111 '
b10111 .
#530000
1!
1"
#540000
0!
0"
b11000 '
b11000 .
#550000
1!
1"
#560000
0!
0"
b11001 '
b11001 .
#570000
1!
1"
#580000
0!
0"
b11010 '
b11010 .
#590000
1!
1"
#600000
0!
0"
b11011 '
b11011 .
#610000
1!
1"
#620000
0!
0"
b11100 '
b11100 .
#630000
1!
1"
#640000
0!
0"
b11101 '
b11101 .
#650000
1!
1"
#660000
0!
0"
b11110 '
b11110 .
#670000
1!
1"
#680000
0!
0"
b11111 '
b11111 .
#690000
1!
1"
#700000
0!
0"
b100000 '
b100000 .
#710000
1!
1"
#720000
0!
0"
b100001 '
b100001 .
#730000
1!
1"
#740000
0!
0"
b100010 '
b100010 .
#750000
1!
1"
#760000
0!
0"
b100011 '
b100011 .
#770000
1!
1"
#780000
0!
0"
b100100 '
b100100 .
#790000
1!
1"
#800000
0!
0"
b100101 '
b100101 .
#810000
1!
1"
#820000
0!
0"
b100110 '
b100110 .
#830000
1!
1"
#840000
0!
0"
b100111 '
b100111 .
#850000
1!
1"
#860000
0!
0"
b101000 '
b101000 .
#870000
1!
1"
#880000
0!
0"
b101001 '
b101001 .
#890000
1!
1"
#900000
0!
0"
b101010 '
b101010 .
#910000
1!
1"
#920000
0!
0"
b101011 '
b101011 .
#930000
1!
1"
#940000
0!
0"
b101100 '
b101100 .
#950000
1!
1"
#960000
0!
0"
b101101 '
b101101 .
#970000
1!
1"
#980000
0!
0"
b101110 '
b101110 .
#990000
1!
1"
#1000000
0!
0"
b101111 '
b101111 .
#1010000
1!
1"
#1020000
0!
0"
b110000 '
b110000 .
#1030000
1!
1"
#1040000
0!
0"
b110001 '
b110001 .
#1050000
1!
1"
#1060000
0!
0"
b110010 '
b110010 .
#1070000
1!
1"
#1080000
0!
0"
b110011 '
b110011 .
#1090000
1!
1"
#1100000
0!
0"
b110100 '
b110100 .
#1110000
1!
1"
#1120000
0!
0"
b110101 '
b110101 .
#1130000
1!
1"
#1140000
0!
0"
b110110 '
b110110 .
#1150000
1!
1"
#1160000
0!
0"
b110111 '
b110111 .
#1170000
1!
1"
#1180000
0!
0"
b111000 '
b111000 .
#1190000
1!
1"
#1200000
0!
0"
b111001 '
b111001 .
#1210000
1!
1"
#1220000
0!
0"
b111010 '
b111010 .
#1230000
1!
1"
#1240000
0!
0"
b111011 '
b111011 .
#1250000
1!
1"
#1260000
0!
0"
b111100 '
b111100 .
#1270000
1!
1"
#1280000
0!
0"
b111101 '
b111101 .
#1290000
1!
1"
#1300000
0!
0"
b111110 '
b111110 .
#1310000
1!
1"
#1320000
0!
0"
b111111 '
b111111 .
#1330000
1!
1"
#1340000
0!
0"
b1000000 '
b1000000 .
#1350000
1!
1"
#1360000
0!
0"
b1000001 '
b1000001 .
#1370000
1!
1"
#1380000
0!
0"
b1000010 '
b1000010 .
#1390000
1!
1"
#1400000
0!
0"
b1000011 '
b1000011 .
#1410000
1!
1"
#1420000
0!
0"
b1000100 '
b1000100 .
#1430000
1!
1"
#1440000
0!
0"
b1000101 '
b1000101 .
#1450000
1!
1"
#1460000
0!
0"
b1000110 '
b1000110 .
#1470000
1!
1"
#1480000
0!
0"
b1000111 '
b1000111 .
#1490000
1!
1"
#1500000
0!
0"
b1001000 '
b1001000 .
#1510000
1!
1"
#1520000
0!
0"
b1001001 '
b1001001 .
#1530000
1!
1"
#1540000
0!
0"
b1001010 '
b1001010 .
#1550000
1!
1"
#1560000
0!
0"
b1001011 '
b1001011 .
#1570000
1!
1"
#1580000
0!
0"
b1001100 '
b1001100 .
#1590000
1!
1"
#1600000
0!
0"
b1001101 '
b1001101 .
#1610000
1!
1"
#1620000
0!
0"
b1001110 '
b1001110 .
#1630000
1!
1"
#1640000
0!
0"
b1001111 '
b1001111 .
#1650000
1!
1"
#1660000
0!
0"
b1010000 '
b1010000 .
#1670000
1!
1"
#1680000
0!
0"
b1010001 '
b1010001 .
#1690000
1!
1"
#1700000
0!
0"
b1010010 '
b1010010 .
#1710000
1!
1"
#1720000
0!
0"
b1010011 '
b1010011 .
#1730000
1!
1"
#1740000
0!
0"
b1010100 '
b1010100 .
#1750000
1!
1"
#1760000
0!
0"
b1010101 '
b1010101 .
#1770000
1!
1"
#1780000
0!
0"
b1010110 '
b1010110 .
#1790000
1!
1"
#1800000
0!
0"
b1010111 '
b1010111 .
#1810000
1!
1"
#1820000
0!
0"
b1011000 '
b1011000 .
#1830000
1!
1"
#1840000
0!
0"
b1011001 '
b1011001 .
#1850000
1!
1"
#1860000
0!
0"
b1011010 '
b1011010 .
#1870000
1!
1"
#1880000
0!
0"
b1011011 '
b1011011 .
#1890000
1!
1"
#1900000
0!
0"
b1011100 '
b1011100 .
#1910000
1!
1"
#1920000
0!
0"
b1011101 '
b1011101 .
#1930000
1!
1"
#1940000
0!
0"
b1011110 '
b1011110 .
#1950000
1!
1"
#1960000
0!
0"
b1011111 '
b1011111 .
#1970000
1!
1"
#1980000
0!
0"
b1100000 '
b1100000 .
#1990000
1!
1"
#2000000
0!
0"
b1100001 '
b1100001 .
#2010000
1!
1"
#2020000
0!
0"
b1100010 '
b1100010 .
#2030000
1!
1"
#2040000
0!
0"
b1100011 '
b1100011 .
#2050000
1!
1"
#2060000
0!
0"
b1100100 '
b1100100 .
#2070000
1!
1"
#2080000
0!
0"
b1100101 '
b1100101 .
#2090000
1!
1"
#2100000
0!
0"
b1100110 '
b1100110 .
#2110000
1!
1"
#2120000
0!
0"
b1100111 '
b1100111 .
#2130000
1!
1"
#2140000
0!
0"
b1101000 '
b1101000 .
#2150000
1!
1"
#2160000
0!
0"
b1101001 '
b1101001 .
#2170000
1!
1"
#2180000
0!
0"
b1101010 '
b1101010 .
#2190000
1!
1"
#2200000
0!
0"
b1101011 '
b1101011 .
#2210000
1!
1"
#2220000
0!
0"
b1101100 '
b1101100 .
#2230000
1!
1"
#2240000
0!
0"
b1101101 '
b1101101 .
#2250000
1!
1"
#2260000
0!
0"
b1101110 '
b1101110 .
#2270000
1!
1"
#2280000
0!
0"
b1101111 '
b1101111 .
#2290000
1!
1"
#2300000
0!
0"
b1110000 '
b1110000 .
#2310000
1!
1"
#2320000
0!
0"
b1110001 '
b1110001 .
#2330000
1!
1"
#2340000
0!
0"
b1110010 '
b1110010 .
#2350000
1!
1"
#2360000
0!
0"
b1110011 '
b1110011 .
#2370000
1!
1"
#2380000
0!
0"
b1110100 '
b1110100 .
#2390000
1!
1"
#2400000
0!
0"
b1110101 '
b1110101 .
#2410000
1!
1"
#2420000
0!
0"
b1110110 '
b1110110 .
#2430000
1!
1"
#2440000
0!
0"
b1110111 '
b1110111 .
#2450000
1!
1"
#2460000
0!
0"
b1111000 '
b1111000 .
#2470000
1!
1"
#2480000
0!
0"
b1111001 '
b1111001 .
#2490000
1!
1"
#2500000
0!
0"
b1111010 '
b1111010 .
#2510000
1!
1"
#2520000
0!
0"
b1111011 '
b1111011 .
#2530000
1!
1"
#2540000
0!
0"
b1111100 '
b1111100 .
#2550000
1!
1"
#2560000
0!
0"
b1111101 '
b1111101 .
#2570000
1!
1"
#2580000
0!
0"
b1111110 '
b1111110 .
#2590000
1!
1"
#2600000
0!
0"
b1111111 '
b1111111 .
#2610000
1!
1"
#2620000
0!
0"
b10000000 '
b10000000 .
#2630000
1!
1"
#2640000
0!
0"
b10000001 '
b10000001 .
#2650000
1!
1"
#2660000
0!
0"
b10000010 '
b10000010 .
#2670000
1!
1"
#2680000
0!
0"
b10000011 '
b10000011 .
#2690000
1!
1"
#2700000
0!
0"
b10000100 '
b10000100 .
#2710000
1!
1"
#2720000
0!
0"
b10000101 '
b10000101 .
#2730000
1!
1"
#2740000
0!
0"
b10000110 '
b10000110 .
#2750000
1!
1"
#2760000
0!
0"
b10000111 '
b10000111 .
#2770000
1!
1"
#2780000
0!
0"
b10001000 '
b10001000 .
#2790000
1!
1"
#2800000
0!
0"
b10001001 '
b10001001 .
#2810000
1!
1"
#2820000
0!
0"
b10001010 '
b10001010 .
#2830000
1!
1"
#2840000
0!
0"
b10001011 '
b10001011 .
#2850000
1!
1"
#2860000
0!
0"
b10001100 '
b10001100 .
#2870000
1!
1"
#2880000
0!
0"
b10001101 '
b10001101 .
#2890000
1!
1"
#2900000
0!
0"
b10001110 '
b10001110 .
#2910000
1!
1"
#2920000
0!
0"
b10001111 '
b10001111 .
#2930000
1!
1"
#2940000
0!
0"
b10010000 '
b10010000 .
#2950000
1!
1"
#2960000
0!
0"
b10010001 '
b10010001 .
#2970000
1!
1"
#2980000
0!
0"
b10010010 '
b10010010 .
#2990000
1!
1"
#3000000
0!
0"
b10010011 '
b10010011 .
#3010000
1!
1"
#3020000
0!
0"
b10010100 '
b10010100 .
#3030000
1!
1"
#3040000
0!
0"
b10010101 '
b10010101 .
#3050000
1!
1"
#3060000
0!
0"
b10010110 '
b10010110 .
#3070000
1!
1"
#3080000
0!
0"
b10010111 '
b10010111 .
#3090000
1!
1"
#3100000
0!
0"
b10011000 '
b10011000 .
#3110000
1!
1"
#3120000
0!
0"
b10011001 '
b10011001 .
#3130000
1!
1"
#3140000
0!
0"
b10011010 '
b10011010 .
#3150000
1!
1"
#3160000
0!
0"
b10011011 '
b10011011 .
#3170000
1!
1"
#3180000
0!
0"
b10011100 '
b10011100 .
#3190000
1!
1"
#3200000
0!
0"
b10011101 '
b10011101 .
#3210000
1!
1"
#3220000
0!
0"
b10011110 '
b10011110 .
#3230000
1!
1"
#3240000
0!
0"
b10011111 '
b10011111 .
#3250000
1!
1"
#3260000
0!
0"
b10100000 '
b10100000 .
#3270000
1!
1"
#3280000
0!
0"
b10100001 '
b10100001 .
#3290000
1!
1"
#3300000
0!
0"
b10100010 '
b10100010 .
#3310000
1!
1"
#3320000
0!
0"
b10100011 '
b10100011 .
#3330000
1!
1"
#3340000
0!
0"
b10100100 '
b10100100 .
#3350000
1!
1"
#3360000
0!
0"
b10100101 '
b10100101 .
#3370000
1!
1"
#3380000
0!
0"
b10100110 '
b10100110 .
#3390000
1!
1"
#3400000
0!
0"
b10100111 '
b10100111 .
#3410000
1!
1"
#3420000
0!
0"
b10101000 '
b10101000 .
#3430000
1!
1"
#3440000
0!
0"
b10101001 '
b10101001 .
#3450000
1!
1"
#3460000
0!
0"
b10101010 '
b10101010 .
#3470000
1!
1"
#3480000
0!
0"
b10101011 '
b10101011 .
#3490000
1!
1"
#3500000
0!
0"
b10101100 '
b10101100 .
#3510000
1!
1"
#3520000
0!
0"
b10101101 '
b10101101 .
#3530000
1!
1"
#3540000
0!
0"
b10101110 '
b10101110 .
#3550000
1!
1"
#3560000
0!
0"
b10101111 '
b10101111 .
#3570000
1!
1"
#3580000
0!
0"
b10110000 '
b10110000 .
#3590000
1!
1"
#3600000
0!
0"
b10110001 '
b10110001 .
#3610000
1!
1"
#3620000
0!
0"
b10110010 '
b10110010 .
#3630000
1!
1"
#3640000
0!
0"
b10110011 '
b10110011 .
#3650000
1!
1"
#3660000
0!
0"
b10110100 '
b10110100 .
#3670000
1!
1"
#3680000
0!
0"
b10110101 '
b10110101 .
#3690000
1!
1"
#3700000
0!
0"
b10110110 '
b10110110 .
#3710000
1!
1"
#3720000
0!
0"
b10110111 '
b10110111 .
#3730000
1!
1"
#3740000
0!
0"
b10111000 '
b10111000 .
#3750000
1!
1"
#3760000
0!
0"
b10111001 '
b10111001 .
#3770000
1!
1"
#3780000
0!
0"
b10111010 '
b10111010 .
#3790000
1!
1"
#3800000
0!
0"
b10111011 '
b10111011 .
#3810000
1!
1"
#3820000
0!
0"
b10111100 '
b10111100 .
#3830000
1!
1"
#3840000
0!
0"
b10111101 '
b10111101 .
#3850000
1!
1"
#3860000
0!
0"
b10111110 '
b10111110 .
#3870000
1!
1"
#3880000
0!
0"
b10111111 '
b10111111 .
#3890000
1!
1"
#3900000
0!
0"
b11000000 '
b11000000 .
#3910000
1!
1"
#3920000
0!
0"
b11000001 '
b11000001 .
#3930000
1!
1"
#3940000
0!
0"
b11000010 '
b11000010 .
#3950000
1!
1"
#3960000
0!
0"
b11000011 '
b11000011 .
#3970000
1!
1"
#3980000
0!
0"
b11000100 '
b11000100 .
#3990000
1!
1"
#4000000
0!
0"
b11000101 '
b11000101 .
#4010000
1!
1"
#4020000
0!
0"
b11000110 '
b11000110 .
#4030000
1!
1"
#4040000
0!
0"
b11000111 '
b11000111 .
#4050000
1!
1"
#4060000
0!
0"
b11001000 '
b11001000 .
#4070000
1!
1"
#4080000
0!
0"
b11001001 '
b11001001 .
#4090000
1!
1"
#4100000
0!
0"
b11001010 '
b11001010 .
#4110000
1!
1"
#4120000
0!
0"
b11001011 '
b11001011 .
#4130000
1!
1"
#4140000
0!
0"
b11001100 '
b11001100 .
#4150000
1!
1"
#4160000
0!
0"
b11001101 '
b11001101 .
#4170000
1!
1"
#4180000
0!
0"
b11001110 '
b11001110 .
#4190000
1!
1"
#4200000
0!
0"
b11001111 '
b11001111 .
#4210000
1!
1"
#4220000
0!
0"
b11010000 '
b11010000 .
#4230000
1!
1"
#4240000
0!
0"
b11010001 '
b11010001 .
#4250000
1!
1"
#4260000
0!
0"
b11010010 '
b11010010 .
#4270000
1!
1"
#4280000
0!
0"
b11010011 '
b11010011 .
#4290000
1!
1"
#4300000
0!
0"
b11010100 '
b11010100 .
#4310000
1!
1"
#4320000
0!
0"
b11010101 '
b11010101 .
#4330000
1!
1"
#4340000
0!
0"
b11010110 '
b11010110 .
#4350000
1!
1"
#4360000
0!
0"
b11010111 '
b11010111 .
#4370000
1!
1"
#4380000
0!
0"
b11011000 '
b11011000 .
#4390000
1!
1"
#4400000
0!
0"
b11011001 '
b11011001 .
#4410000
1!
1"
#4420000
0!
0"
b11011010 '
b11011010 .
#4430000
1!
1"
#4440000
0!
0"
b11011011 '
b11011011 .
#4450000
1!
1"
#4460000
0!
0"
b11011100 '
b11011100 .
#4470000
1!
1"
#4480000
0!
0"
b11011101 '
b11011101 .
#4490000
1!
1"
#4500000
0!
0"
b11011110 '
b11011110 .
#4510000
1!
1"
#4520000
0!
0"
b11011111 '
b11011111 .
#4530000
1!
1"
#4540000
0!
0"
b11100000 '
b11100000 .
#4550000
1!
1"
#4560000
0!
0"
b11100001 '
b11100001 .
#4570000
1!
1"
#4580000
0!
0"
b11100010 '
b11100010 .
#4590000
1!
1"
#4600000
0!
0"
b11100011 '
b11100011 .
#4610000
1!
1"
#4620000
0!
0"
b11100100 '
b11100100 .
#4630000
1!
1"
#4640000
0!
0"
b11100101 '
b11100101 .
#4650000
1!
1"
#4660000
0!
0"
b11100110 '
b11100110 .
#4670000
1!
1"
#4680000
0!
0"
b11100111 '
b11100111 .
#4690000
1!
1"
#4700000
0!
0"
b11101000 '
b11101000 .
#4710000
1!
1"
#4720000
0!
0"
b11101001 '
b11101001 .
#4730000
1!
1"
#4740000
0!
0"
b11101010 '
b11101010 .
#4750000
1!
1"
#4760000
0!
0"
b11101011 '
b11101011 .
#4770000
1!
1"
#4780000
0!
0"
b11101100 '
b11101100 .
#4790000
1!
1"
#4800000
0!
0"
b11101101 '
b11101101 .
#4810000
1!
1"
#4820000
0!
0"
b11101110 '
b11101110 .
#4830000
1!
1"
#4840000
0!
0"
b11101111 '
b11101111 .
#4850000
1!
1"
#4860000
0!
0"
b11110000 '
b11110000 .
#4870000
1!
1"
#4880000
0!
0"
b11110001 '
b11110001 .
#4890000
1!
1"
#4900000
0!
0"
b11110010 '
b11110010 .
#4910000
1!
1"
#4920000
0!
0"
b11110011 '
b11110011 .
#4930000
1!
1"
#4940000
0!
0"
b11110100 '
b11110100 .
#4950000
1!
1"
#4960000
0!
0"
b11110101 '
b11110101 .
#4970000
1!
1"
#4980000
0!
0"
b11110110 '
b11110110 .
#4990000
1!
1"
1*
#5000000
0!
0"
b11110111 '
b11110111 .
#5010000
1!
1"
#5020000
0!
0"
b11111000 '
b11111000 .
#5030000
1!
1"
#5040000
0!
0"
b11111001 '
b11111001 .
#5050000
1!
1"
#5060000
0!
0"
b11111010 '
b11111010 .
#5070000
1!
1"
#5080000
0!
0"
b11111011 '
b11111011 .
#5090000
1!
1"
#5100000
0!
0"
b11111100 '
b11111100 .
#5110000
1!
1"
#5120000
0!
0"
b11111101 '
b11111101 .
#5130000
1!
1"
#5140000
0!
0"
b11111110 '
b11111110 .
#5150000
1!
1"
1(
#5160000
0!
0"
b11111111 '
b11111111 .
#5170000
1!
1"
#5180000
0!
0"
b0 '
b100000000 .
#5190000
1!
1"
#5200000
0!
0"
b1 '
b100000001 .
#5210000
1!
1"
#5220000
0!
0"
b10 '
b100000010 .
#5230000
1!
1"
#5240000
0!
0"
b11 '
b100000011 .
#5250000
1!
1"
#5260000
0!
0"
b100 '
b100000100 .
#5270000
1!
1"
#5280000
0!
0"
b101 '
b100000101 .
#5290000
1!
1"
#5300000
0!
0"
b110 '
b100000110 .
#5310000
1!
1"
#5320000
0!
0"
b111 '
b100000111 .
#5330000
1!
1"
#5340000
0!
0"
b1000 '
b100001000 .
#5350000
1!
1"
#5360000
0!
0"
b1001 '
b100001001 .
#5370000
1!
1"
#5380000
0!
0"
b1010 '
b100001010 .
#5390000
1!
1"
#5400000
0!
0"
b1011 '
b100001011 .
#5410000
1!
1"
#5420000
0!
0"
b1100 '
b100001100 .
#5430000
1!
1"
#5440000
0!
0"
b1101 '
b100001101 .
#5450000
1!
1"
#5460000
0!
0"
b1110 '
b100001110 .
#5470000
1!
1"
#5480000
0!
0"
b1111 '
b100001111 .
#5490000
1!
1"
#5500000
0!
0"
b10000 '
b100010000 .
#5510000
1!
1"
#5520000
0!
0"
b10001 '
b100010001 .
#5530000
1!
1"
#5540000
0!
0"
b10010 '
b100010010 .
#5550000
1!
1"
#5560000
0!
0"
b10011 '
b100010011 .
#5570000
1!
1"
#5580000
0!
0"
b10100 '
b100010100 .
#5590000
1!
1"
#5600000
0!
0"
b10101 '
b100010101 .
#5610000
1!
1"
#5620000
0!
0"
b10110 '
b100010110 .
#5630000
1!
1"
#5640000
0!
0"
b10111 '
b100010111 .
#5650000
1!
1"
#5660000
0!
0"
b11000 '
b100011000 .
#5670000
1!
1"
#5680000
0!
0"
b11001 '
b100011001 .
#5690000
1!
1"
#5700000
0!
0"
b11010 '
b100011010 .
#5710000
1!
1"
#5720000
0!
0"
b11011 '
b100011011 .
#5730000
1!
1"
#5740000
0!
0"
b11100 '
b100011100 .
#5750000
1!
1"
#5760000
0!
0"
b11101 '
b100011101 .
#5770000
1!
1"
#5780000
0!
0"
b11110 '
b100011110 .
#5790000
1!
1"
#5800000
0!
0"
b11111 '
b100011111 .
#5810000
1!
1"
#5820000
0!
0"
b100000 '
b100100000 .
#5830000
1!
1"
#5840000
0!
0"
b100001 '
b100100001 .
#5850000
1!
1"
#5860000
0!
0"
b100010 '
b100100010 .
#5870000
1!
1"
#5880000
0!
0"
b100011 '
b100100011 .
#5890000
1!
1"
#5900000
0!
0"
b100100 '
b100100100 .
#5910000
1!
1"
#5920000
0!
0"
b100101 '
b100100101 .
#5930000
1!
1"
#5940000
0!
0"
b100110 '
b100100110 .
#5950000
1!
1"
#5960000
0!
0"
b100111 '
b100100111 .
#5970000
1!
1"
#5980000
0!
0"
b101000 '
b100101000 .
#5990000
1!
1"
#6000000
0!
0"
b101001 '
b100101001 .
#6010000
1!
1"
#6020000
0!
0"
b101010 '
b100101010 .
#6030000
1!
1"
#6040000
0!
0"
b101011 '
b100101011 .
#6050000
1!
1"
#6060000
0!
0"
b100101100 .
#6070000
1!
1"
#6080000
0!
0"
0&
#6090000
1!
1"
#6100000
0!
0"
1%
b0 .
#6110000
1!
1"
0(
#6120000
0!
0"
b1 .
#6130000
1!
1"
b0 ,
#6140000
0!
0"
b10 .
#6150000
1!
1"
b1 ,
#6160000
0!
0"
b11 .
#6170000
1!
1"
b10 ,
#6180000
0!
0"
b100 .
#6190000
1!
1"
b11 ,
#6200000
0!
0"
b101 .
#6210000
1!
1"
b100 ,
#6220000
0!
0"
b110 .
#6230000
1!
1"
b101 ,
#6240000
0!
0"
b111 .
#6250000
1!
1"
b110 ,
#6260000
0!
0"
b1000 .
#6270000
1!
1"
0*
b111 ,
#6280000
0!
0"
b1001 .
#6290000
1!
1"
b1000 ,
#6300000
0!
0"
b1010 .
#6310000
1!
1"
b1001 ,
#6320000
0!
0"
b1011 .
#6330000
1!
1"
b1010 ,
#6340000
0!
0"
b1100 .
#6350000
1!
1"
b1011 ,
#6360000
0!
0"
b1101 .
#6370000
1!
1"
b1100 ,
#6380000
0!
0"
b1110 .
#6390000
1!
1"
b1101 ,
#6400000
0!
0"
b1111 .
#6410000
1!
1"
b1110 ,
#6420000
0!
0"
b10000 .
#6430000
1!
1"
b1111 ,
#6440000
0!
0"
b10001 .
#6450000
1!
1"
b10000 ,
#6460000
0!
0"
b10010 .
#6470000
1!
1"
b10001 ,
#6480000
0!
0"
b10011 .
#6490000
1!
1"
b10010 ,
#6500000
0!
0"
b10100 .
#6510000
1!
1"
b10011 ,
#6520000
0!
0"
b10101 .
#6530000
1!
1"
b10100 ,
#6540000
0!
0"
b10110 .
#6550000
1!
1"
b10101 ,
#6560000
0!
0"
b10111 .
#6570000
1!
1"
b10110 ,
#6580000
0!
0"
b11000 .
#6590000
1!
1"
b10111 ,
#6600000
0!
0"
b11001 .
#6610000
1!
1"
b11000 ,
#6620000
0!
0"
b11010 .
#6630000
1!
1"
b11001 ,
#6640000
0!
0"
b11011 .
#6650000
1!
1"
b11010 ,
#6660000
0!
0"
b11100 .
#6670000
1!
1"
b11011 ,
#6680000
0!
0"
b11101 .
#6690000
1!
1"
b11100 ,
#6700000
0!
0"
b11110 .
#6710000
1!
1"
b11101 ,
#6720000
0!
0"
b11111 .
#6730000
1!
1"
b11110 ,
#6740000
0!
0"
b100000 .
#6750000
1!
1"
b11111 ,
#6760000
0!
0"
b100001 .
#6770000
1!
1"
b100000 ,
#6780000
0!
0"
b100010 .
#6790000
1!
1"
b100001 ,
#6800000
0!
0"
b100011 .
#6810000
1!
1"
b100010 ,
#6820000
0!
0"
b100100 .
#6830000
1!
1"
b100011 ,
#6840000
0!
0"
b100101 .
#6850000
1!
1"
b100100 ,
#6860000
0!
0"
b100110 .
#6870000
1!
1"
b100101 ,
#6880000
0!
0"
b100111 .
#6890000
1!
1"
b100110 ,
#6900000
0!
0"
b101000 .
#6910000
1!
1"
b100111 ,
#6920000
0!
0"
b101001 .
#6930000
1!
1"
b101000 ,
#6940000
0!
0"
b101010 .
#6950000
1!
1"
b101001 ,
#6960000
0!
0"
b101011 .
#6970000
1!
1"
b101010 ,
#6980000
0!
0"
b101100 .
#6990000
1!
1"
b101011 ,
#7000000
0!
0"
b101101 .
#7010000
1!
1"
b101100 ,
#7020000
0!
0"
b101110 .
#7030000
1!
1"
b101101 ,
#7040000
0!
0"
b101111 .
#7050000
1!
1"
b101110 ,
#7060000
0!
0"
b110000 .
#7070000
1!
1"
b101111 ,
#7080000
0!
0"
b110001 .
#7090000
1!
1"
b110000 ,
#7100000
0!
0"
b110010 .
#7110000
1!
1"
b110001 ,
#7120000
0!
0"
b110011 .
#7130000
1!
1"
b110010 ,
#7140000
0!
0"
b110100 .
#7150000
1!
1"
b110011 ,
#7160000
0!
0"
b110101 .
#7170000
1!
1"
b110100 ,
#7180000
0!
0"
b110110 .
#7190000
1!
1"
b110101 ,
#7200000
0!
0"
b110111 .
#7210000
1!
1"
b110110 ,
#7220000
0!
0"
b111000 .
#7230000
1!
1"
b110111 ,
#7240000
0!
0"
b111001 .
#7250000
1!
1"
b111000 ,
#7260000
0!
0"
b111010 .
#7270000
1!
1"
b111001 ,
#7280000
0!
0"
b111011 .
#7290000
1!
1"
b111010 ,
#7300000
0!
0"
b111100 .
#7310000
1!
1"
b111011 ,
#7320000
0!
0"
b111101 .
#7330000
1!
1"
b111100 ,
#7340000
0!
0"
b111110 .
#7350000
1!
1"
b111101 ,
#7360000
0!
0"
b111111 .
#7370000
1!
1"
b111110 ,
#7380000
0!
0"
b1000000 .
#7390000
1!
1"
b111111 ,
#7400000
0!
0"
b1000001 .
#7410000
1!
1"
b1000000 ,
#7420000
0!
0"
b1000010 .
#7430000
1!
1"
b1000001 ,
#7440000
0!
0"
b1000011 .
#7450000
1!
1"
b1000010 ,
#7460000
0!
0"
b1000100 .
#7470000
1!
1"
b1000011 ,
#7480000
0!
0"
b1000101 .
#7490000
1!
1"
b1000100 ,
#7500000
0!
0"
b1000110 .
#7510000
1!
1"
b1000101 ,
#7520000
0!
0"
b1000111 .
#7530000
1!
1"
b1000110 ,
#7540000
0!
0"
b1001000 .
#7550000
1!
1"
b1000111 ,
#7560000
0!
0"
b1001001 .
#7570000
1!
1"
b1001000 ,
#7580000
0!
0"
b1001010 .
#7590000
1!
1"
b1001001 ,
#7600000
0!
0"
b1001011 .
#7610000
1!
1"
b1001010 ,
#7620000
0!
0"
b1001100 .
#7630000
1!
1"
b1001011 ,
#7640000
0!
0"
b1001101 .
#7650000
1!
1"
b1001100 ,
#7660000
0!
0"
b1001110 .
#7670000
1!
1"
b1001101 ,
#7680000
0!
0"
b1001111 .
#7690000
1!
1"
b1001110 ,
#7700000
0!
0"
b1010000 .
#7710000
1!
1"
b1001111 ,
#7720000
0!
0"
b1010001 .
#7730000
1!
1"
b1010000 ,
#7740000
0!
0"
b1010010 .
#7750000
1!
1"
b1010001 ,
#7760000
0!
0"
b1010011 .
#7770000
1!
1"
b1010010 ,
#7780000
0!
0"
b1010100 .
#7790000
1!
1"
b1010011 ,
#7800000
0!
0"
b1010101 .
#7810000
1!
1"
b1010100 ,
#7820000
0!
0"
b1010110 .
#7830000
1!
1"
b1010101 ,
#7840000
0!
0"
b1010111 .
#7850000
1!
1"
b1010110 ,
#7860000
0!
0"
b1011000 .
#7870000
1!
1"
b1010111 ,
#7880000
0!
0"
b1011001 .
#7890000
1!
1"
b1011000 ,
#7900000
0!
0"
b1011010 .
#7910000
1!
1"
b1011001 ,
#7920000
0!
0"
b1011011 .
#7930000
1!
1"
b1011010 ,
#7940000
0!
0"
b1011100 .
#7950000
1!
1"
b1011011 ,
#7960000
0!
0"
b1011101 .
#7970000
1!
1"
b1011100 ,
#7980000
0!
0"
b1011110 .
#7990000
1!
1"
b1011101 ,
#8000000
0!
0"
b1011111 .
#8010000
1!
1"
b1011110 ,
#8020000
0!
0"
b1100000 .
#8030000
1!
1"
b1011111 ,
#8040000
0!
0"
b1100001 .
#8050000
1!
1"
b1100000 ,
#8060000
0!
0"
b1100010 .
#8070000
1!
1"
b1100001 ,
#8080000
0!
0"
b1100011 .
#8090000
1!
1"
b1100010 ,
#8100000
0!
0"
b1100100 .
#8110000
1!
1"
b1100011 ,
#8120000
0!
0"
b1100101 .
#8130000
1!
1"
b1100100 ,
#8140000
0!
0"
b1100110 .
#8150000
1!
1"
b1100101 ,
#8160000
0!
0"
b1100111 .
#8170000
1!
1"
b1100110 ,
#8180000
0!
0"
b1101000 .
#8190000
1!
1"
b1100111 ,
#8200000
0!
0"
b1101001 .
#8210000
1!
1"
b1101000 ,
#8220000
0!
0"
b1101010 .
#8230000
1!
1"
b1101001 ,
#8240000
0!
0"
b1101011 .
#8250000
1!
1"
b1101010 ,
#8260000
0!
0"
b1101100 .
#8270000
1!
1"
b1101011 ,
